Collections, directories, and files — collections • rglobus
…
my_collection <- my_collections()
my_collection
#> # A tibble: 1 × 2
#>   display_name    id                                  
#>   <chr>           <chr>                               
#> 1 Martin's HuBMAP 714ce2c4-3268-11ef-9629-453c3ae125a5

##
## Directories and files
##

globus_ls(hubmap)    # same as `hubmap |> globus_ls()`
#> # A tibble: 2,308 × 4
#>    name                             last_modified              size type 
#>    <chr>                            <chr>                     <int> <chr>
#>  1 0008a49ac06f4afd886be81491a5a926 2024-07-26 13:35:21+00:00  4096 dir  
#>  2 0027cb59bcb4a34d5db83acaf934a9d9 2024-07-26 13:19:12+00:00  4096 dir  
#>  3 002e9747855eef1e69452b39713a7592 2024-08-13 19:04:13+00:00  4096 dir  
#>  4 00318be0b7cfa3c6ed7fbeab08fe700b 2024-07-26 12:58:42+00:00  4096 dir  
#>  5 004d4f157df4ba07356cd805131dfc04 2024-08-13 19:21:04+00:00  4096 dir  
#>  6 0066713ca95c03c52cb40f90ce8bbdb8 2024-04-17 23:24:41+00:00  4096 dir  
#>  7 007ae59344e7df0e398204ee40155cb0 2024-04-17 23:18:56+00:00  4096 dir  
#>  8 007f3dfaaa287d5c7c227651f61a9c5b 2024-07-26 14:46:55+00:00  4096 dir  
#>  9 00cc71c7e1cddac60e794044079faeee 2024-07-26 14:17:08+00:00  4096 dir  
#> 10 00d1a3623dac388773bc7780fcb42797 2024-04-17 23:02:27+00:00  4096 dir  
#> # ℹ 2,298 more rows

## hierarchical traversal
hubmap |>
    globus_ls("0008a49ac06f4afd886be81491a5a926/sprm_outputs")
#> # A tibble: 84 × 4
#>    name                                               last_modified   size type 
#>    <chr>                                              <chr>          <int> <chr>
#>  1 out.hdf5                                           2021-11-21 0… 4.46e8 file 
#>  2 reg1_stitched_expressions.ome.tiff-Cluster_Shape.… 2021-11-21 0… 6.58e6 file 
#>  3 reg1_stitched_expressions.ome.tiff-SNR.csv         2021-11-21 0… 4.85e2 file 
#>  4 reg1_stitched_expressions.ome.tiff-SPRM_Image_Qua… 2021-11-21 0… 5.72e3 file 
#>  5 reg1_stitched_expressions.ome.tiff-Superpixels.png 2021-11-21 0… 6.01e6 file 
#>  6 reg1_stitched_expressions.ome.tiff-Top3ChannelPCA… 2021-11-21 0… 5.29e7 file 
#>  7 reg1_stitched_expressions.ome.tiff-cell_1_texture… 2021-11-21 0… 2.10e7 file 
#>  8 reg1_stitched_expressions.ome.tiff-cell_boundarie… 2021-11-21 0… 1.38e8 file 
#>  9 reg1_stitched_expressions.ome.tiff-cell_boundarie… 2021-11-21 0… 1.30e7 file 
#> 10 reg1_stitched_expressions.ome.tiff-cell_boundarie… 2021-11-21 0… 4.62e6 file 
#> # ℹ 74 more rows
…
