Task management — task_status • rglobus
…
    ## tasks that are failing need to be cancelled
    status <- pull(task_status, "status")
    nice_status <- pull(task_status, "nice_status")
    cancel <-
        ## task has failed, or...
        identical(status, "FAILED") ||
        ## ...something's gone wrong
        (!is.null(nice_status) && !nice_status %in% c("OK", "Queued"))
    if (cancel)
        task_cancel(task)
}

task_list()
#> # A tibble: 29 × 5
#>    task_id                              type     status    nice_status label    
#>    <chr>                                <chr>    <chr>     <lgl>       <chr>    
#>  1 b7e8fdfe-5995-11ef-b6d4-f55c894bd1c6 TRANSFER SUCCEEDED NA          2024-08-…
#>  2 7776b014-598f-11ef-b6d4-f55c894bd1c6 TRANSFER SUCCEEDED NA          2024-08-…
#>  3 550bfa46-5987-11ef-b6d4-f55c894bd1c6 TRANSFER SUCCEEDED NA          2024-08-…
#>  4 d2badc10-5986-11ef-b917-c30b78766494 TRANSFER SUCCEEDED NA          2024-08-…
#>  5 ff043bce-5984-11ef-abcf-8b7014cf3b82 TRANSFER FAILED    NA          2024-08-…
#>  6 e337d7de-5984-11ef-abcf-8b7014cf3b82 TRANSFER SUCCEEDED NA          2024-08-…
#>  7 8473e936-5984-11ef-b6d4-f55c894bd1c6 TRANSFER SUCCEEDED NA          2024-08-…
#>  8 4642c662-597c-11ef-b6d4-f55c894bd1c6 TRANSFER FAILED    NA          2024-08-…
#>  9 4a1a86a4-597b-11ef-b6d4-f55c894bd1c6 TRANSFER FAILED    NA          2024-08-…
#> 10 76cc6704-58f8-11ef-b917-c30b78766494 TRANSFER SUCCEEDED NA          2024-08-…
#> # ℹ 19 more rows
…
