Get Started • rglobus
…
Collection content

Each collection is presented as directories and files. Focus on the
‘HuBMAP Public’ collection.

hubmap <-
    hubmap_collections |>
    dplyr::filter(display_name == "HuBMAP Public")

List the content of the collection.

globus_ls(hubmap)
## # A tibble: 2,308 × 4
##    name                             last_modified              size type 
##    <chr>                            <chr>                     <int> <chr>
##  1 0008a49ac06f4afd886be81491a5a926 2024-07-26 13:35:21+00:00  4096 dir  
##  2 0027cb59bcb4a34d5db83acaf934a9d9 2024-07-26 13:19:12+00:00  4096 dir  
##  3 002e9747855eef1e69452b39713a7592 2024-08-13 19:04:13+00:00  4096 dir  
##  4 00318be0b7cfa3c6ed7fbeab08fe700b 2024-07-26 12:58:42+00:00  4096 dir  
##  5 004d4f157df4ba07356cd805131dfc04 2024-08-13 19:21:04+00:00  4096 dir  
##  6 0066713ca95c03c52cb40f90ce8bbdb8 2024-04-17 23:24:41+00:00  4096 dir  
##  7 007ae59344e7df0e398204ee40155cb0 2024-04-17 23:18:56+00:00  4096 dir  
##  8 007f3dfaaa287d5c7c227651f61a9c5b 2024-07-26 14:46:55+00:00  4096 dir  
##  9 00cc71c7e1cddac60e794044079faeee 2024-07-26 14:17:08+00:00  4096 dir  
## 10 00d1a3623dac388773bc7780fcb42797 2024-04-17 23:02:27+00:00  4096 dir  
## # ℹ 2,298 more rows
…
